…
``` r
birthweight_df |> count(smoken) # there were quite a number of people who smoked during pregnancy in this dataset
```

    ## # A tibble: 33 × 2
    ##    smoken     n
    ##     <dbl> <int>
    ##  1  0      2552
    ##  2  0.125    39
    ##  3  0.75     38
    ##  4  1       142
    ##  5  2       141
    ##  6  3       144
    ##  7  4       110
    ##  8  5       128
    ##  9  6        61
    ## 10  7        51
    ## # ℹ 23 more rows
…
